<?xml version="1.0" encoding="UTF-8"?>
<session version="1.0">
<refactoring comment="Delete resource &apos;MAS&apos;" deleteContents="false" description="Delete resource &apos;MAS&apos;" element1="/MAS" flags="7" id="org.eclipse.ltk.core.refactoring.delete.resources" resources="1" stamp="1528037064790"/>
</session>